..........
----------------------------------------------------------------------
Ran 10 tests in 0.002s

OK
Name               Stmts   Miss Branch BrPart  Cover   Missing
--------------------------------------------------------------
Diplomacy.py          88      7     74      4    88%   54, 89-91, 118-120, 53->54, 56->60, 88->89, 110->118
TestDiplomacy.py      47      0      0      0   100%
--------------------------------------------------------------
TOTAL                135      7     74      4    91%