...
----------------------------------------------------------------------
Ran 3 tests in 0.001s

OK
Name               Stmts   Miss Branch BrPart  Cover   Missing
--------------------------------------------------------------
Diplomacy.py          46      0     30      1    99%   49->37
TestDiplomacy.py      21      0      0      0   100%
--------------------------------------------------------------
TOTAL                 67      0     30      1    99%
